…
# Y1

``` r
#Leaving here just in case we want to go back to disaggregating sites

#Y1
#Filter only site 1
Y1_S1<- read_excel("data/3Y_for_ANOVA.xlsx", 
                             sheet = "Y1") %>% filter(Site==1)
Y1_S1
```

    ## # A tibble: 36 x 13
    ##    Var          Site   Rep Split_trt     Num_plnt Percent_inf_60 Percent_inf_150
    ##    <chr>       <dbl> <dbl> <chr>            <dbl>          <dbl>           <dbl>
    ##  1 KU 50           1     1 Without fert~        6           0               0   
    ##  2 Rayong 11       1     1 Without fert~       11           9.09            0   
    ##  3 Huaybong 60     1     1 Without fert~       10           0              10   
    ##  4 Rayong 5        1     1 Without fert~       12           0               0   
    ##  5 SC 8            1     1 Without fert~       12          16.7            41.7 
    ##  6 KM 98-1         1     1 Without fert~       11           0               9.09
    ##  7 KU 50           1     2 Without fert~       10           0               0   
    ##  8 Rayong 11       1     2 Without fert~       11           9.09            0   
    ##  9 Huaybong 60     1     2 Without fert~        6           0               0   
    ## 10 Rayong 5        1     2 Without fert~       12           0               0   
    ## # ... with 26 more rows, and 6 more variables: Percent_inf_270 <dbl>,
    ## #   Percent_inf_cul_60 <dbl>, Percent_inf_cul_150 <dbl>,
    ## #   Percent_inf_cul_270 <dbl>, Adj_yield_kg <dbl>, adjusted kg/plant <dbl>
…
``` r
#Filter site 2
Y1_S2<- read_excel("data/3Y_for_ANOVA.xlsx", 
                             sheet = "Y1") %>% filter(Site==2)
Y1_S2
```

    ## # A tibble: 36 x 13
    ##    Var          Site   Rep Split_trt     Num_plnt Percent_inf_60 Percent_inf_150
    ##    <chr>       <dbl> <dbl> <chr>            <dbl>          <dbl>           <dbl>
    ##  1 KU 50           2     1 Without fert~        9            0              0   
    ##  2 Rayong 11       2     1 Without fert~       10           20             70   
    ##  3 Huaybong 60     2     1 Without fert~       11           27.3            9.09
    ##  4 Rayong 5        2     1 Without fert~       10           20             10   
    ##  5 SC 8            2     1 Without fert~       11           54.5           36.4 
    ##  6 KM 98-1         2     1 Without fert~       12            0             16.7 
    ##  7 KU 50           2     2 Without fert~        9            0             33.3 
    ##  8 Rayong 11       2     2 Without fert~       11           27.3           63.6 
    ##  9 Huaybong 60     2     2 Without fert~       10           20             40   
    ## 10 Rayong 5        2     2 Without fert~       10           10             30   
    ## # ... with 26 more rows, and 6 more variables: Percent_inf_270 <dbl>,
    ## #   Percent_inf_cul_60 <dbl>, Percent_inf_cul_150 <dbl>,
    ## #   Percent_inf_cul_270 <dbl>, Adj_yield_kg <dbl>, adjusted kg/plant <dbl>
…
